{
	"process_id" : 12380,
	"version" : "2019.4.17f1",
	"app_path" : "C:/Program Files/Unity/Hub/Editor/2019.4.17f1/Editor/Unity.exe",
	"app_contents_path" : "C:/Program Files/Unity/Hub/Editor/2019.4.17f1/Editor/Data"
}